2020-04-23 10:02:35  [          ] File    : D:\Project\FileWatch\FileWatch\bin\Debug\FileWatch.exe
2020-04-23 10:02:35  [          ] Version : 1.0.0.0
2020-04-23 10:02:35  [          ] (TCenter1.Create)Listen Port 砞 6211
2020-04-23 10:02:35  [          ] (TCenter1.Create)Create Start
2020-04-23 10:02:35  [          ] (TThreadTCPServerPCClient.ServerSocketListen)TCP/IP Server Listening with :6211
2020-04-23 10:02:35  [          ] (TCenter1.Create)Create Over
2020-04-23 10:02:35  [          ] (SajetTransStartType)Function Execute Over
2020-04-23 10:02:40  [          ] (TThreadTCPServerPCClient.ServerSocketAccept)TCP/IP Client Accept - 10.132.52.10:6211
2020-04-23 10:02:40  [          ] (TThreadTCPServerPCClient.ServerSocketGetThread)TCP/IP Client Get Thread - 10.132.52.10:4228
2020-04-23 10:02:40  [          ] (TThreadTCPServerMainPCClient.Create)Create TCP Server Thread OK[10.132.52.10:4228]
2020-04-23 10:02:40  [          ] (TThreadTCPServerPCClient.ServerSocketGetThread)TCP/IP Client Get Thread - 10.132.52.10:4228 OK
2020-04-23 10:02:40  [          ] (TThreadTCPServerMainPCClient.ClientExecute)Execute Rsv Data Thread Start[10.132.52.10:4228]
2020-04-23 10:02:41  [          ] (TThreadTCPServerMainPCClient.executeRsvData.checkLink)Link Remote Server[10.132.52.10:4228]
2020-04-23 10:02:41  [          ] (TCenter1.onRsvRemoteData)Terminal Data - Device (1) On LineLine : BOSCH-VSAStage : B0SCHProcess : PCB_Clean_ManualTerminal : PCB_Clean_Machine
2020-04-23 10:02:51  [          ] (SajetTransferData)Function Execute Start [P:4][C:1][L:8][Data:31-30-30-30-38-37-34-34-]
2020-04-23 10:02:51  [          ] (SajetTransferData)Command Data - 110008744
2020-04-23 10:02:51  [          ] (TThreadTCPServerMainPCClient.sendDataToRemote)Add Send Data[P:4][Data:1;10008744][10.132.52.10:4228]
2020-04-23 10:02:51  [          ] (TCenter1.onRsvRemoteData)Rsv Feedback Data : OK;OK;
2020-04-23 10:02:51  [          ] (SajetTransferData)Command Result - OK1OK;OK;
2020-04-23 10:03:06  [          ] SajetTransClose砆㊣
2020-04-23 10:03:06  [          ] (TCenter1.Destroy)Destroy Start
2020-04-23 10:03:06  [          ] (TThreadTCPServerPCClient.Destroy)Cloes TCP/IP Server Start
2020-04-23 10:03:06  [          ] (TThreadTCPServerPCClient.ServerSocketClientDisconnect)TCP/IP Client Disconnect - 10.132.52.10:6211
2020-04-23 10:03:06  [ERROR     ] (TThreadTCPServerSend.Execute.sendDataToRemote)Write error 6, 北絏礚
2020-04-23 10:03:06  [ERROR     ] (TThreadTCPServerMainPCClient.ClientExecute.rsvDataFromSocket)Read error 6, 北絏礚[10.132.52.10:4228]
2020-04-23 10:03:06  [TEST      ] (TThreadTCPServerPCClient.deleteThread)Show Form Connect
2020-04-23 10:03:06  [          ] (TThreadTCPServerMainPCClient.ClientExecute)Execute Rsv Data Thread Over[10.132.52.10:4228]
2020-04-23 10:03:06  [          ] (TThreadTCPServerMainPCClient.Destroy)Destroy TCP Server Thread Start[10.132.52.10:4228]
2020-04-23 10:03:06  [          ] (TThreadTCPServerMainPCClient.Destroy)Destroy TCP Server Thread OK[10.132.52.10:4228]
2020-04-23 10:03:06  [          ] (TThreadTCPServerSend.Destroy)Destroy Send Thread Start
2020-04-23 10:03:06  [          ] (TThreadTCPServerSend.Destroy)Destroy Send Thread Over
2020-04-23 10:03:06  [          ] (TThreadTCPServerPCClient.Destroy)Cloes TCP/IP Server Over
2020-04-23 10:03:06  [          ] (TCenter1.Destroy)Destroy Over
2020-04-23 10:03:06  [          ] (TThreadTCPServerRsv.Destroy)Destroy Send Thread Start
2020-04-23 10:03:06  [          ] (TThreadTCPServerRsv.Destroy)Destroy Send Thread Over
2020-04-23 10:03:12  [          ] File    : D:\Project\FileWatch\FileWatch\bin\Debug\FileWatch.exe
2020-04-23 10:03:12  [          ] Version : 1.0.0.0
2020-04-23 10:03:12  [          ] (TCenter1.Create)Listen Port 砞 6211
2020-04-23 10:03:12  [          ] (TCenter1.Create)Create Start
2020-04-23 10:03:12  [          ] (TThreadTCPServerPCClient.ServerSocketListen)TCP/IP Server Listening with :6211
2020-04-23 10:03:12  [          ] (TCenter1.Create)Create Over
2020-04-23 10:03:12  [          ] (SajetTransStartType)Function Execute Over
2020-04-23 10:03:14  [          ] (TThreadTCPServerPCClient.ServerSocketAccept)TCP/IP Client Accept - 10.132.52.10:6211
2020-04-23 10:03:14  [          ] (TThreadTCPServerPCClient.ServerSocketGetThread)TCP/IP Client Get Thread - 10.132.52.10:4230
2020-04-23 10:03:14  [          ] (TThreadTCPServerMainPCClient.Create)Create TCP Server Thread OK[10.132.52.10:4230]
2020-04-23 10:03:14  [          ] (TThreadTCPServerPCClient.ServerSocketGetThread)TCP/IP Client Get Thread - 10.132.52.10:4230 OK
2020-04-23 10:03:14  [          ] (TThreadTCPServerMainPCClient.ClientExecute)Execute Rsv Data Thread Start[10.132.52.10:4230]
2020-04-23 10:03:14  [          ] (TThreadTCPServerMainPCClient.executeRsvData.checkLink)Link Remote Server[10.132.52.10:4230]
2020-04-23 10:03:14  [          ] (TCenter1.onRsvRemoteData)Terminal Data - Device (1) On LineLine : BOSCH-VSAStage : B0SCHProcess : PCB_Clean_ManualTerminal : PCB_Clean_Machine
2020-04-23 10:03:19  [          ] (SajetTransferData)Function Execute Start [P:4][C:1][L:8][Data:31-30-30-30-38-37-34-34-]
2020-04-23 10:03:19  [          ] (SajetTransferData)Command Data - 110008744
2020-04-23 10:03:19  [          ] (TThreadTCPServerMainPCClient.sendDataToRemote)Add Send Data[P:4][Data:1;10008744][10.132.52.10:4230]
2020-04-23 10:03:19  [          ] (TCenter1.onRsvRemoteData)Rsv Feedback Data : OK;OK;
2020-04-23 10:03:19  [          ] (SajetTransferData)Command Result - OK1OK;OK;
2020-04-23 10:03:21  [          ] (SajetTransferData)Function Execute Start [P:4][C:1][L:8][Data:31-30-30-30-38-37-34-34-]
2020-04-23 10:03:21  [          ] (SajetTransferData)Command Data - 110008744
2020-04-23 10:03:21  [          ] (TThreadTCPServerMainPCClient.sendDataToRemote)Add Send Data[P:4][Data:1;10008744][10.132.52.10:4230]
2020-04-23 10:03:21  [          ] (TCenter1.onRsvRemoteData)Rsv Feedback Data : OK;OK;
2020-04-23 10:03:21  [          ] (SajetTransferData)Command Result - OK1OK;OK;
2020-04-23 10:03:22  [          ] (SajetTransferData)Function Execute Start [P:4][C:1][L:8][Data:31-30-30-30-38-37-34-34-]
2020-04-23 10:03:22  [          ] (SajetTransferData)Command Data - 110008744
2020-04-23 10:03:22  [          ] (TThreadTCPServerMainPCClient.sendDataToRemote)Add Send Data[P:4][Data:1;10008744][10.132.52.10:4230]
2020-04-23 10:03:22  [          ] (TCenter1.onRsvRemoteData)Rsv Feedback Data : OK;OK;
2020-04-23 10:03:22  [          ] (SajetTransferData)Command Result - OK1OK;OK;
2020-04-23 10:10:30  [          ] File    : D:\Project\FileWatch\FileWatch\bin\Debug\FileWatch.exe
2020-04-23 10:10:30  [          ] Version : 1.0.0.0
2020-04-23 10:10:30  [          ] (TCenter1.Create)Listen Port 砞 6211
2020-04-23 10:10:30  [          ] (TCenter1.Create)Create Start
2020-04-23 10:10:30  [          ] (TThreadTCPServerPCClient.ServerSocketListen)TCP/IP Server Listening with :6211
2020-04-23 10:10:30  [          ] (TCenter1.Create)Create Over
2020-04-23 10:10:30  [          ] (SajetTransStartType)Function Execute Over
2020-04-23 10:10:41  [          ] (TThreadTCPServerPCClient.ServerSocketAccept)TCP/IP Client Accept - 10.132.52.10:6211
2020-04-23 10:10:41  [          ] (TThreadTCPServerPCClient.ServerSocketGetThread)TCP/IP Client Get Thread - 10.132.52.10:4254
2020-04-23 10:10:41  [          ] (TThreadTCPServerMainPCClient.Create)Create TCP Server Thread OK[10.132.52.10:4254]
2020-04-23 10:10:41  [          ] (TThreadTCPServerPCClient.ServerSocketGetThread)TCP/IP Client Get Thread - 10.132.52.10:4254 OK
2020-04-23 10:10:41  [          ] (TThreadTCPServerMainPCClient.ClientExecute)Execute Rsv Data Thread Start[10.132.52.10:4254]
2020-04-23 10:10:41  [          ] (TThreadTCPServerMainPCClient.executeRsvData.checkLink)Link Remote Server[10.132.52.10:4254]
2020-04-23 10:10:41  [          ] (TCenter1.onRsvRemoteData)Terminal Data - Device (1) On LineLine : BOSCH-VSAStage : B0SCHProcess : PCB_Clean_ManualTerminal : PCB_Clean_Machine
2020-04-23 10:10:43  [          ] (SajetTransferData)Function Execute Start [P:4][C:1][L:8][Data:31-30-30-30-38-37-34-34-]
2020-04-23 10:10:43  [          ] (SajetTransferData)Command Data - 110008744
2020-04-23 10:10:43  [          ] (TThreadTCPServerMainPCClient.sendDataToRemote)Add Send Data[P:4][Data:1;10008744][10.132.52.10:4254]
2020-04-23 10:10:43  [          ] (TCenter1.onRsvRemoteData)Rsv Feedback Data : OK;OK;
2020-04-23 10:10:43  [          ] (SajetTransferData)Command Result - OK1OK;OK;
2020-04-23 10:10:47  [          ] SajetTransClose砆㊣
2020-04-23 10:10:47  [          ] (TCenter1.Destroy)Destroy Start
2020-04-23 10:10:47  [          ] (TThreadTCPServerPCClient.Destroy)Cloes TCP/IP Server Start
2020-04-23 10:10:47  [          ] (TThreadTCPServerPCClient.ServerSocketClientDisconnect)TCP/IP Client Disconnect - 10.132.52.10:6211
2020-04-23 10:10:47  [ERROR     ] (TThreadTCPServerSend.Execute.sendDataToRemote)Write error 6, 北絏礚
2020-04-23 10:10:47  [ERROR     ] (TThreadTCPServerMainPCClient.ClientExecute.rsvDataFromSocket)Read error 6, 北絏礚[10.132.52.10:4254]
2020-04-23 10:10:47  [TEST      ] (TThreadTCPServerPCClient.deleteThread)Show Form Connect
2020-04-23 10:10:47  [          ] (TThreadTCPServerMainPCClient.ClientExecute)Execute Rsv Data Thread Over[10.132.52.10:4254]
2020-04-23 10:10:47  [          ] (TThreadTCPServerMainPCClient.Destroy)Destroy TCP Server Thread Start[10.132.52.10:4254]
2020-04-23 10:10:47  [          ] (TThreadTCPServerMainPCClient.Destroy)Destroy TCP Server Thread OK[10.132.52.10:4254]
2020-04-23 10:10:47  [          ] (TThreadTCPServerSend.Destroy)Destroy Send Thread Start
2020-04-23 10:10:47  [          ] (TThreadTCPServerSend.Destroy)Destroy Send Thread Over
2020-04-23 10:10:47  [          ] (TThreadTCPServerPCClient.Destroy)Cloes TCP/IP Server Over
2020-04-23 10:10:47  [          ] (TThreadTCPServerRsv.Destroy)Destroy Send Thread Start
2020-04-23 10:10:47  [          ] (TCenter1.Destroy)Destroy Over
2020-04-23 10:10:47  [          ] (TThreadTCPServerRsv.Destroy)Destroy Send Thread Over
2020-04-23 10:15:41  [          ] File    : D:\Project\FileWatch\FileWatch\bin\Debug\FileWatch.exe
2020-04-23 10:15:41  [          ] Version : 1.0.0.0
2020-04-23 10:15:41  [          ] (TCenter1.Create)Listen Port 砞 6211
2020-04-23 10:15:41  [          ] (TCenter1.Create)Create Start
2020-04-23 10:15:41  [          ] (TThreadTCPServerPCClient.ServerSocketListen)TCP/IP Server Listening with :6211
2020-04-23 10:15:41  [          ] (TCenter1.Create)Create Over
2020-04-23 10:15:41  [          ] (SajetTransStartType)Function Execute Over
2020-04-23 10:15:47  [          ] (TThreadTCPServerPCClient.ServerSocketAccept)TCP/IP Client Accept - 10.132.52.10:6211
2020-04-23 10:15:47  [          ] (TThreadTCPServerPCClient.ServerSocketGetThread)TCP/IP Client Get Thread - 10.132.52.10:4273
2020-04-23 10:15:47  [          ] (TThreadTCPServerMainPCClient.Create)Create TCP Server Thread OK[10.132.52.10:4273]
2020-04-23 10:15:47  [          ] (TThreadTCPServerPCClient.ServerSocketGetThread)TCP/IP Client Get Thread - 10.132.52.10:4273 OK
2020-04-23 10:15:47  [          ] (TThreadTCPServerMainPCClient.ClientExecute)Execute Rsv Data Thread Start[10.132.52.10:4273]
2020-04-23 10:15:48  [          ] (TThreadTCPServerMainPCClient.executeRsvData.checkLink)Link Remote Server[10.132.52.10:4273]
2020-04-23 10:15:48  [          ] (TCenter1.onRsvRemoteData)Terminal Data - Device (1) On LineLine : BOSCH-VSAStage : B0SCHProcess : PCB_Clean_ManualTerminal : PCB_Clean_Machine
2020-04-23 10:15:55  [          ] (SajetTransferData)Function Execute Start [P:4][C:1][L:8][Data:31-30-30-30-38-37-34-34-]
2020-04-23 10:15:55  [          ] (SajetTransferData)Command Data - 110008744
2020-04-23 10:15:55  [          ] (TThreadTCPServerMainPCClient.sendDataToRemote)Add Send Data[P:4][Data:1;10008744][10.132.52.10:4273]
2020-04-23 10:15:55  [          ] (TCenter1.onRsvRemoteData)Rsv Feedback Data : OK;OK;
2020-04-23 10:15:55  [          ] (SajetTransferData)Command Result - OK1OK;OK;
2020-04-23 10:16:03  [          ] SajetTransClose砆㊣
2020-04-23 10:16:03  [          ] (TCenter1.Destroy)Destroy Start
2020-04-23 10:16:03  [          ] (TThreadTCPServerPCClient.Destroy)Cloes TCP/IP Server Start
2020-04-23 10:16:03  [          ] (TThreadTCPServerPCClient.ServerSocketClientDisconnect)TCP/IP Client Disconnect - 10.132.52.10:6211
2020-04-23 10:16:03  [ERROR     ] (TThreadTCPServerSend.Execute.sendDataToRemote)Write error 6, 北絏礚
2020-04-23 10:16:03  [ERROR     ] (TThreadTCPServerMainPCClient.ClientExecute.rsvDataFromSocket)Read error 6, 北絏礚[10.132.52.10:4273]
2020-04-23 10:16:03  [TEST      ] (TThreadTCPServerPCClient.deleteThread)Show Form Connect
2020-04-23 10:16:03  [          ] (TThreadTCPServerMainPCClient.ClientExecute)Execute Rsv Data Thread Over[10.132.52.10:4273]
2020-04-23 10:16:03  [          ] (TThreadTCPServerMainPCClient.Destroy)Destroy TCP Server Thread Start[10.132.52.10:4273]
2020-04-23 10:16:03  [          ] (TThreadTCPServerMainPCClient.Destroy)Destroy TCP Server Thread OK[10.132.52.10:4273]
2020-04-23 10:16:03  [          ] (TThreadTCPServerSend.Destroy)Destroy Send Thread Start
2020-04-23 10:16:03  [          ] (TThreadTCPServerSend.Destroy)Destroy Send Thread Over
2020-04-23 10:16:03  [          ] (TThreadTCPServerPCClient.Destroy)Cloes TCP/IP Server Over
2020-04-23 10:16:03  [          ] (TCenter1.Destroy)Destroy Over
2020-04-23 10:16:03  [          ] (TThreadTCPServerRsv.Destroy)Destroy Send Thread Start
2020-04-23 10:16:03  [          ] (TThreadTCPServerRsv.Destroy)Destroy Send Thread Over
2020-04-23 10:20:45  [          ] File    : D:\Project\Sajet64Demo\FileWatch\bin\Debug\FileWatch.exe
2020-04-23 10:20:45  [          ] Version : 1.0.0.0
2020-04-23 10:20:45  [          ] (TCenter1.Create)Listen Port 砞 6211
2020-04-23 10:20:45  [          ] (TCenter1.Create)Create Start
2020-04-23 10:20:45  [          ] (TThreadTCPServerPCClient.ServerSocketListen)TCP/IP Server Listening with :6211
2020-04-23 10:20:45  [          ] (TCenter1.Create)Create Over
2020-04-23 10:20:46  [          ] (SajetTransStartType)Function Execute Over
2020-04-23 10:20:57  [          ] (TThreadTCPServerPCClient.ServerSocketAccept)TCP/IP Client Accept - 10.132.52.10:6211
2020-04-23 10:20:57  [          ] (TThreadTCPServerPCClient.ServerSocketGetThread)TCP/IP Client Get Thread - 10.132.52.10:4291
2020-04-23 10:20:57  [          ] (TThreadTCPServerMainPCClient.Create)Create TCP Server Thread OK[10.132.52.10:4291]
2020-04-23 10:20:57  [          ] (TThreadTCPServerPCClient.ServerSocketGetThread)TCP/IP Client Get Thread - 10.132.52.10:4291 OK
2020-04-23 10:20:57  [          ] (TThreadTCPServerMainPCClient.ClientExecute)Execute Rsv Data Thread Start[10.132.52.10:4291]
2020-04-23 10:20:58  [          ] (TThreadTCPServerMainPCClient.executeRsvData.checkLink)Link Remote Server[10.132.52.10:4291]
2020-04-23 10:20:58  [          ] (TCenter1.onRsvRemoteData)Terminal Data - Device (1) On LineLine : BOSCH-VSAStage : B0SCHProcess : PCB_Clean_ManualTerminal : PCB_Clean_Machine
2020-04-23 10:21:00  [          ] (SajetTransferData)Function Execute Start [P:4][C:1][L:8][Data:31-30-30-30-38-37-34-34-]
2020-04-23 10:21:00  [          ] (SajetTransferData)Command Data - 110008744
2020-04-23 10:21:00  [          ] (TThreadTCPServerMainPCClient.sendDataToRemote)Add Send Data[P:4][Data:1;10008744][10.132.52.10:4291]
2020-04-23 10:21:00  [          ] (TCenter1.onRsvRemoteData)Rsv Feedback Data : OK;OK;
2020-04-23 10:21:00  [          ] (SajetTransferData)Command Result - OK1OK;OK;
2020-04-23 10:21:02  [          ] SajetTransClose砆㊣
2020-04-23 10:21:02  [          ] (TCenter1.Destroy)Destroy Start
2020-04-23 10:21:02  [          ] (TThreadTCPServerPCClient.Destroy)Cloes TCP/IP Server Start
2020-04-23 10:21:02  [          ] (TThreadTCPServerPCClient.ServerSocketClientDisconnect)TCP/IP Client Disconnect - 10.132.52.10:6211
2020-04-23 10:21:02  [ERROR     ] (TThreadTCPServerSend.Execute.sendDataToRemote)Write error 6, 北絏礚
2020-04-23 10:21:02  [ERROR     ] (TThreadTCPServerMainPCClient.ClientExecute.rsvDataFromSocket)Read error 6, 北絏礚[10.132.52.10:4291]
2020-04-23 10:21:02  [TEST      ] (TThreadTCPServerPCClient.deleteThread)Show Form Connect
2020-04-23 10:21:02  [          ] (TThreadTCPServerMainPCClient.ClientExecute)Execute Rsv Data Thread Over[10.132.52.10:4291]
2020-04-23 10:21:02  [          ] (TThreadTCPServerMainPCClient.Destroy)Destroy TCP Server Thread Start[10.132.52.10:4291]
2020-04-23 10:21:02  [          ] (TThreadTCPServerMainPCClient.Destroy)Destroy TCP Server Thread OK[10.132.52.10:4291]
2020-04-23 10:21:02  [          ] (TThreadTCPServerSend.Destroy)Destroy Send Thread Start
2020-04-23 10:21:02  [          ] (TThreadTCPServerSend.Destroy)Destroy Send Thread Over
2020-04-23 10:21:02  [          ] (TThreadTCPServerPCClient.Destroy)Cloes TCP/IP Server Over
2020-04-23 10:21:02  [          ] (TThreadTCPServerRsv.Destroy)Destroy Send Thread Start
2020-04-23 10:21:02  [          ] (TCenter1.Destroy)Destroy Over
2020-04-23 10:21:02  [          ] (TThreadTCPServerRsv.Destroy)Destroy Send Thread Over
